%YAML 1.1
%TAG !u! tag:unity3d.com,2011:
--- !u!74 &7400000
AnimationClip:
  m_ObjectHideFlags: 0
  m_CorrespondingSourceObject: {fileID: 0}
  m_PrefabInstance: {fileID: 0}
  m_PrefabAsset: {fileID: 0}
  m_Name: IdleMob
  serializedVersion: 6
  m_Legacy: 0
  m_Compressed: 0
  m_UseHighQualityCurve: 1
  m_RotationCurves: []
  m_CompressedRotationCurves: []
  m_EulerCurves: []
  m_PositionCurves: []
  m_ScaleCurves: []
  m_FloatCurves: []
  m_PPtrCurves:
  - curve:
    - time: 0
      value: {fileID: 21300000, guid: 4edd079d2ed2d954cb55f174886e4f93, type: 3}
    - time: 0.083333336
      value: {fileID: 21300000, guid: 26577ef4876c8bc45ae05e7011300a72, type: 3}
    - time: 0.16666667
      value: {fileID: 21300000, guid: 673dabeda81a5e341a5a922ff95df2e7, type: 3}
    - time: 0.25
      value: {fileID: 21300000, guid: e5f4d3fcbc8114649aba4558ed62ff8e, type: 3}
    - time: 0.33333334
      value: {fileID: 21300000, guid: 267adcb9e34f01e47a0fab867cfb11ee, type: 3}
    - time: 0.41666666
      value: {fileID: 21300000, guid: 6d03119cf4c532b4da1444f159ee56ae, type: 3}
    - time: 0.5
      value: {fileID: 21300000, guid: a132b0f74358a03468d990ade093c63a, type: 3}
    - time: 0.5833333
      value: {fileID: 21300000, guid: 4e36bdf6ab4e59b43af16ad7cc8ad1fd, type: 3}
    attribute: m_Sprite
    path: 
    classID: 212
    script: {fileID: 0}
  m_SampleRate: 12
  m_WrapMode: 0
  m_Bounds:
    m_Center: {x: 0, y: 0, z: 0}
    m_Extent: {x: 0, y: 0, z: 0}
  m_ClipBindingConstant:
    genericBindings:
    - serializedVersion: 2
      path: 0
      attribute: 0
      script: {fileID: 0}
      typeID: 212
      customType: 23
      isPPtrCurve: 1
    pptrCurveMapping:
    - {fileID: 21300000, guid: 4edd079d2ed2d954cb55f174886e4f93, type: 3}
    - {fileID: 21300000, guid: 26577ef4876c8bc45ae05e7011300a72, type: 3}
    - {fileID: 21300000, guid: 673dabeda81a5e341a5a922ff95df2e7, type: 3}
    - {fileID: 21300000, guid: e5f4d3fcbc8114649aba4558ed62ff8e, type: 3}
    - {fileID: 21300000, guid: 267adcb9e34f01e47a0fab867cfb11ee, type: 3}
    - {fileID: 21300000, guid: 6d03119cf4c532b4da1444f159ee56ae, type: 3}
    - {fileID: 21300000, guid: a132b0f74358a03468d990ade093c63a, type: 3}
    - {fileID: 21300000, guid: 4e36bdf6ab4e59b43af16ad7cc8ad1fd, type: 3}
  m_AnimationClipSettings:
    serializedVersion: 2
    m_AdditiveReferencePoseClip: {fileID: 0}
    m_AdditiveReferencePoseTime: 0
    m_StartTime: 0
    m_StopTime: 0.6666666
    m_OrientationOffsetY: 0
    m_Level: 0
    m_CycleOffset: 0
    m_HasAdditiveReferencePose: 0
    m_LoopTime: 1
    m_LoopBlend: 0
    m_LoopBlendOrientation: 0
    m_LoopBlendPositionY: 0
    m_LoopBlendPositionXZ: 0
    m_KeepOriginalOrientation: 0
    m_KeepOriginalPositionY: 1
    m_KeepOriginalPositionXZ: 0
    m_HeightFromFeet: 0
    m_Mirror: 0
  m_EditorCurves: []
  m_EulerEditorCurves: []
  m_HasGenericRootTransform: 0
  m_HasMotionFloatCurves: 0
  m_Events: []
