%YAML 1.1
%TAG !u! tag:unity3d.com,2011:
--- !u!114 &11400000
MonoBehaviour:
  m_ObjectHideFlags: 0
  m_CorrespondingSourceObject: {fileID: 0}
  m_PrefabInstance: {fileID: 0}
  m_PrefabAsset: {fileID: 0}
  m_GameObject: {fileID: 0}
  m_Enabled: 1
  m_EditorHideFlags: 0
  m_Script: {fileID: 11500000, guid: 0098e60b1fb9a6a4bb2bb9d7713cc76e, type: 3}
  m_Name: Wave1
  m_EditorClassIdentifier: 
  eventWave: 0
  listPatterns:
  - timeDelay: 0
    pattern: {fileID: 11400000, guid: 1858035213f6c424699d56763d5b4b3c, type: 2}
  - timeDelay: 0.001
    pattern: {fileID: 11400000, guid: a7658179bd275f345b05ac4616a524ba, type: 2}
  - timeDelay: 0.5
    pattern: {fileID: 11400000, guid: 948fdd7094a703e48a0c2f44b0de5fe1, type: 2}
  - timeDelay: 0.5
    pattern: {fileID: 11400000, guid: c90e1ac3c74c5e64a8878deeade47068, type: 2}
  - timeDelay: 0.5
    pattern: {fileID: 11400000, guid: c01396d5dd40b48468e2447e6fae970a, type: 2}
  - timeDelay: 0.5
    pattern: {fileID: 11400000, guid: b54d5ddae9eb5474d967d44822612f96, type: 2}
