%YAML 1.1
%TAG !u! tag:unity3d.com,2011:
--- !u!114 &11400000
MonoBehaviour:
  m_ObjectHideFlags: 0
  m_CorrespondingSourceObject: {fileID: 0}
  m_PrefabInstance: {fileID: 0}
  m_PrefabAsset: {fileID: 0}
  m_GameObject: {fileID: 0}
  m_Enabled: 1
  m_EditorHideFlags: 0
  m_Script: {fileID: 11500000, guid: 0098e60b1fb9a6a4bb2bb9d7713cc76e, type: 3}
  m_Name: WaveTest
  m_EditorClassIdentifier: 
  eventWave: 0
  listPatterns:
  - timeDelay: 0
    pattern: {fileID: 11400000, guid: 1858035213f6c424699d56763d5b4b3c, type: 2}
