%YAML 1.1
%TAG !u! tag:unity3d.com,2011:
--- !u!1 &1041694990020535103
GameObject:
  m_ObjectHideFlags: 0
  m_CorrespondingSourceObject: {fileID: 0}
  m_PrefabInstance: {fileID: 0}
  m_PrefabAsset: {fileID: 0}
  serializedVersion: 6
  m_Component:
  - component: {fileID: 9027608833546775852}
  - component: {fileID: 1797236585929006488}
  m_Layer: 0
  m_Name: Player
  m_TagString: Untagged
  m_Icon: {fileID: 0}
  m_NavMeshLayer: 0
  m_StaticEditorFlags: 0
  m_IsActive: 1
--- !u!4 &9027608833546775852
Transform:
  m_ObjectHideFlags: 0
  m_CorrespondingSourceObject: {fileID: 0}
  m_PrefabInstance: {fileID: 0}
  m_PrefabAsset: {fileID: 0}
  m_GameObject: {fileID: 1041694990020535103}
  m_LocalRotation: {x: 0, y: 0, z: 0, w: 1}
  m_LocalPosition: {x: 0, y: 0, z: 0}
  m_LocalScale: {x: 1, y: 1, z: 1}
  m_Children:
  - {fileID: 4422923262268468575}
  m_Father: {fileID: 0}
  m_RootOrder: 0
  m_LocalEulerAnglesHint: {x: 0, y: 0, z: 0}
--- !u!114 &1797236585929006488
MonoBehaviour:
  m_ObjectHideFlags: 0
  m_CorrespondingSourceObject: {fileID: 0}
  m_PrefabInstance: {fileID: 0}
  m_PrefabAsset: {fileID: 0}
  m_GameObject: {fileID: 1041694990020535103}
  m_Enabled: 1
  m_EditorHideFlags: 0
  m_Script: {fileID: 11500000, guid: ef8185e14313f02489a8d65aac1adfb9, type: 3}
  m_Name: 
  m_EditorClassIdentifier: 
  rootChild: {fileID: 0}
  sizeInfo:
    sizeOnCamera: {x: 1, y: 1}
    bodySize: {x: 0.47, y: 0.87}
    centerPos: {x: 0, y: 0}
  myCollider: {fileID: 0}
  myRigidbody: {fileID: 0}
  spriteRenderer: {fileID: 0}
  sortingGroup: {fileID: 0}
  mySide: 0
  myLayer: 0
  isInstall: 0
  isRunning: 0
  currentHP: 5
  isDead: 0
  info:
    maxHp: 5
    maxSpeed: 5
    delayAttackInterval: 0.1
    stunTime: 1.5
    percentWeak: 0.5
    weakTime: 5
    hitInvulnerableTime: 1
    skillInvulnerableTime: 3
  normalBullet: {fileID: 2609846576387701221, guid: c0f3e984120f6d74b90dd79c6c71054f, type: 3}
  chargeBullet: {fileID: 7552048640034861859, guid: a7f5d381f13d5344a85643a260b089b4, type: 3}
  specialAttack: {fileID: 5667859214604030351, guid: 392f8e6a9657605469bb9e46fe7d5ac9, type: 3}
  status: 0
  shootingStatus: 1
--- !u!1001 &1909335141263670538
PrefabInstance:
  m_ObjectHideFlags: 0
  serializedVersion: 2
  m_Modification:
    m_TransformParent: {fileID: 9027608833546775852}
    m_Modifications:
    - target: {fileID: 2818746990498811989, guid: 42eaf7111c8eba8408ec7b4631c9cf04, type: 3}
      propertyPath: m_LocalPosition.x
      value: 0
      objectReference: {fileID: 0}
    - target: {fileID: 2818746990498811989, guid: 42eaf7111c8eba8408ec7b4631c9cf04, type: 3}
      propertyPath: m_LocalPosition.y
      value: 0
      objectReference: {fileID: 0}
    - target: {fileID: 2818746990498811989, guid: 42eaf7111c8eba8408ec7b4631c9cf04, type: 3}
      propertyPath: m_LocalPosition.z
      value: 0
      objectReference: {fileID: 0}
    - target: {fileID: 2818746990498811989, guid: 42eaf7111c8eba8408ec7b4631c9cf04, type: 3}
      propertyPath: m_LocalRotation.x
      value: 0
      objectReference: {fileID: 0}
    - target: {fileID: 2818746990498811989, guid: 42eaf7111c8eba8408ec7b4631c9cf04, type: 3}
      propertyPath: m_LocalRotation.y
      value: 0
      objectReference: {fileID: 0}
    - target: {fileID: 2818746990498811989, guid: 42eaf7111c8eba8408ec7b4631c9cf04, type: 3}
      propertyPath: m_LocalRotation.z
      value: 0
      objectReference: {fileID: 0}
    - target: {fileID: 2818746990498811989, guid: 42eaf7111c8eba8408ec7b4631c9cf04, type: 3}
      propertyPath: m_LocalRotation.w
      value: 1
      objectReference: {fileID: 0}
    - target: {fileID: 2818746990498811989, guid: 42eaf7111c8eba8408ec7b4631c9cf04, type: 3}
      propertyPath: m_RootOrder
      value: 0
      objectReference: {fileID: 0}
    - target: {fileID: 2818746990498811989, guid: 42eaf7111c8eba8408ec7b4631c9cf04, type: 3}
      propertyPath: m_LocalEulerAnglesHint.x
      value: 0
      objectReference: {fileID: 0}
    - target: {fileID: 2818746990498811989, guid: 42eaf7111c8eba8408ec7b4631c9cf04, type: 3}
      propertyPath: m_LocalEulerAnglesHint.y
      value: 0
      objectReference: {fileID: 0}
    - target: {fileID: 2818746990498811989, guid: 42eaf7111c8eba8408ec7b4631c9cf04, type: 3}
      propertyPath: m_LocalEulerAnglesHint.z
      value: 0
      objectReference: {fileID: 0}
    - target: {fileID: 5569464715916117186, guid: 42eaf7111c8eba8408ec7b4631c9cf04, type: 3}
      propertyPath: m_Name
      value: RootChild
      objectReference: {fileID: 0}
    m_RemovedComponents: []
  m_SourcePrefab: {fileID: 100100000, guid: 42eaf7111c8eba8408ec7b4631c9cf04, type: 3}
--- !u!4 &4422923262268468575 stripped
Transform:
  m_CorrespondingSourceObject: {fileID: 2818746990498811989, guid: 42eaf7111c8eba8408ec7b4631c9cf04, type: 3}
  m_PrefabInstance: {fileID: 1909335141263670538}
  m_PrefabAsset: {fileID: 0}
