%YAML 1.1
%TAG !u! tag:unity3d.com,2011:
--- !u!114 &11400000
MonoBehaviour:
  m_ObjectHideFlags: 0
  m_CorrespondingSourceObject: {fileID: 0}
  m_PrefabInstance: {fileID: 0}
  m_PrefabAsset: {fileID: 0}
  m_GameObject: {fileID: 0}
  m_Enabled: 1
  m_EditorHideFlags: 0
  m_Script: {fileID: 11500000, guid: c8dd42c024be20742b074855bb0e1cc9, type: 3}
  m_Name: Player1
  m_EditorClassIdentifier: 
  Name: Wibu tre trau
  prefab: {fileID: 5467582543759947848, guid: da443f5de510c3e44b6eac628e1462d5, type: 3}
  info:
    maxHp: 5
    maxSpeed: 10
    delayAttackInterval: 0.1
    stunTime: 1.5
    percentWeak: 0.5
    weakTime: 5
    hitInvulnerableTime: 1
    skillInvulnerableTime: 3
  skillIcon: {fileID: 21300000, guid: 47d27cf8250da714fa30e6928b6cc9df, type: 3}
  description: Hello
