%YAML 1.1
%TAG !u! tag:unity3d.com,2011:
--- !u!114 &11400000
MonoBehaviour:
  m_ObjectHideFlags: 0
  m_CorrespondingSourceObject: {fileID: 0}
  m_PrefabInstance: {fileID: 0}
  m_PrefabAsset: {fileID: 0}
  m_GameObject: {fileID: 0}
  m_Enabled: 1
  m_EditorHideFlags: 0
  m_Script: {fileID: 11500000, guid: ec9db7a2f5e388f468c206044b03c9dc, type: 3}
  m_Name: Mob size 3
  m_EditorClassIdentifier: 
  data:
  - type: 3
    armor: 0
    distanceOffset: {x: 0, y: 0, z: 0}
    behaviour: 0
    deltaTheta: 0
