%YAML 1.1
%TAG !u! tag:unity3d.com,2011:
--- !u!114 &11400000
MonoBehaviour:
  m_ObjectHideFlags: 0
  m_CorrespondingSourceObject: {fileID: 0}
  m_PrefabInstance: {fileID: 0}
  m_PrefabAsset: {fileID: 0}
  m_GameObject: {fileID: 0}
  m_Enabled: 1
  m_EditorHideFlags: 0
  m_Script: {fileID: 11500000, guid: 15478faa4d10b754f99d8a4ce1e25a0d, type: 3}
  m_Name: Pattern Lv1.4
  m_EditorClassIdentifier: 
  path: {fileID: 8206742256765044847, guid: 739c4dafe7cdcd3449c5385ac4cea67e, type: 3}
  speedOverride:
    isOveride: 1
    speed: 3
  creepFollowThisPath:
  - waitTime: 0
    pathCreepData:
      type: 2
      armor: 0
      actionOnWayPoint: []
      speed: 3
    followNonPathCreep: {fileID: 11400000, guid: d7ce80c3125dfe443b309f27a1ab71bc, type: 2}
